 _____  ___        _   _      ______                                     _____                          
|  _  |/ _ \      | | | |     | ___ \                                   /  ___|                         
| | | / /_\ \_   _| |_| |__   | |_/ /___  ___  ___  _   _ _ __ ___ ___  \ `--.  ___ _ ____   _____ _ __ 
| | | |  _  | | | | __| '_ \  |    // _ \/ __|/ _ \| | | | '__/ __/ _ \  `--. \/ _ \ '__\ \ / / _ \ '__|
\ \_/ / | | | |_| | |_| | | | | |\ \  __/\__ \ (_) | |_| | | | (_|  __/ /\__/ /  __/ |   \ V /  __/ |   
 \___/\_| |_/\__,_|\__|_| |_| \_| \_\___||___/\___/ \__,_|_|  \___\___| \____/ \___|_|    \_/ \___|_|   
                                                                                                        
                                                                                                        